[
   {
      "name": "All devices",
      "description": "This might be a good or bad device. However we don't have enough data to determine the usability status of this device. If you know further details, please update this page."
   },
   {
      "name": "Device with data",
      "description": "Basic functionalities are not working yet. If you have the skills to continue the porting process, this could be your next device."
   },
   {
      "name": "A booting device",
      "description": "The device is not able to perform as a phone. If you need complete calling and cellular data functionalities, consider choosing a different device."
   },
   {
      "name": "Supports cellular and data",
      "description": "This device currently offers minimal features, most of the smart functionalities might not work yet. It can be a very nice second device."
   },
   {
      "name": "Media and communication",
      "description": "Boots and runs well, essential features work correctly. It can be used as a mobile device running Ubuntu Touch OS. Recommended for advanced users."
   },
   {
      "name": "Functioning well",
      "description": "Runs very smoothly without any flaws. The experience on this device will be comparable to other mobile OSes on the market."
   }
]
